[Event "Computer Chess Game"]
[Site "zbox-fritz-box"]
[Date "2017.06.30"]
[Round "-"]
[White "pmchess 0.0.1 (2017-06-29)"]
[Black "POS v1.20 / Mon Dec 29 12:10:19 2008"]
[Result "1-0"]
[TimeControl "40/30"]

1. a4 a5 2. Nc3 b5 3. axb5 a4 4. Nxa4 c5 5. Nxc5 d5 6. Rxa8 d4 7. Rxb8 d3
8. cxd3 e5 9. Rxc8 e4 10. dxe4 f5 11. exf5 g5 12. Rxd8+ Ke7 13. Rxf8 g4 14.
Rxg8 g3 15. fxg3 h5 16. Rxh8 h4 17. gxh4 Kf7 18. Qc2 Kg7 19. Qc3+ Kf7 20.
Qc4+ Kg7 21. Qd5 Kxh8 22. Qd6 Kh7 23. Qd7+ Kh8 24. Qd8+ Kh7 25. Qe8 Kh6 26.
Qf8+ Kh7 27. Qg8+ Kh6 28. Qh8#
{Xboard adjudication: Checkmate} 1-0
